-------------------------------------------------------------------------------
Test set: tasks.services.TasksServiceTest
-------------------------------------------------------------------------------
Tests run: 17, Failures: 0, Errors: 0, Skipped: 0, Time elapsed: 0.042 s - in tasks.services.TasksServiceTest
