-------------------------------------------------------------------------------
Test set: tasks.services.TasksOperationsTest
-------------------------------------------------------------------------------
Tests run: 6, Failures: 0, Errors: 0, Skipped: 0, Time elapsed: 0.003 s - in tasks.services.TasksOperationsTest
