<?xml version="1.0" encoding="UTF-8"?>
<testsuite xmlns:xsi="http://www.w3.org/2001/XMLSchema-instance" xsi:noNamespaceSchemaLocation="https://maven.apache.org/surefire/maven-surefire-plugin/xsd/surefire-test-report.xsd" name="tasks.services.TasksServiceTest" time="0.042" tests="17" errors="0" skipped="0" failures="0">
  <properties>
    <property name="java.specification.version" value="16"/>
    <property name="sun.cpu.isalist" value="amd64"/>
    <property name="sun.jnu.encoding" value="Cp1252"/>
    <property name="java.class.path" value="C:\Users\gabrielagabor\Desktop\-\Facultate\An_3\Semestrul_2\VVSS\Laborator\vvss\01_Tasks\target\test-classes;C:\Users\gabrielagabor\Desktop\-\Facultate\An_3\Semestrul_2\VVSS\Laborator\vvss\01_Tasks\target\classes;C:\Users\gabrielagabor\.m2\repository\org\junit\jupiter\junit-jupiter-engine\5.6.0\junit-jupiter-engine-5.6.0.jar;C:\Users\gabrielagabor\.m2\repository\org\apiguardian\apiguardian-api\1.1.0\apiguardian-api-1.1.0.jar;C:\Users\gabrielagabor\.m2\repository\org\junit\platform\junit-platform-engine\1.6.0\junit-platform-engine-1.6.0.jar;C:\Users\gabrielagabor\.m2\repository\org\junit\jupiter\junit-jupiter-api\5.6.0\junit-jupiter-api-5.6.0.jar;C:\Users\gabrielagabor\.m2\repository\org\opentest4j\opentest4j\1.2.0\opentest4j-1.2.0.jar;C:\Users\gabrielagabor\.m2\repository\org\junit\platform\junit-platform-commons\1.6.0\junit-platform-commons-1.6.0.jar;C:\Users\gabrielagabor\.m2\repository\org\junit\jupiter\junit-jupiter-params\5.6.0\junit-jupiter-params-5.6.0.jar;C:\Users\gabrielagabor\.m2\repository\org\openjfx\javafx-base\14-ea+4\javafx-base-14-ea+4.jar;C:\Users\gabrielagabor\.m2\repository\org\openjfx\javafx-base\14-ea+4\javafx-base-14-ea+4-win.jar;C:\Users\gabrielagabor\.m2\repository\org\openjfx\javafx-graphics\14-ea+4\javafx-graphics-14-ea+4.jar;C:\Users\gabrielagabor\.m2\repository\org\openjfx\javafx-graphics\14-ea+4\javafx-graphics-14-ea+4-win.jar;C:\Users\gabrielagabor\.m2\repository\org\openjfx\javafx-controls\14-ea+4\javafx-controls-14-ea+4.jar;C:\Users\gabrielagabor\.m2\repository\org\openjfx\javafx-controls\14-ea+4\javafx-controls-14-ea+4-win.jar;C:\Users\gabrielagabor\.m2\repository\org\openjfx\javafx-fxml\14-ea+4\javafx-fxml-14-ea+4.jar;C:\Users\gabrielagabor\.m2\repository\org\openjfx\javafx-fxml\14-ea+4\javafx-fxml-14-ea+4-win.jar;C:\Users\gabrielagabor\.m2\repository\org\openjfx\javafx-media\14-ea+4\javafx-media-14-ea+4.jar;C:\Users\gabrielagabor\.m2\repository\org\openjfx\javafx-media\14-ea+4\javafx-media-14-ea+4-win.jar;C:\Users\gabrielagabor\.m2\repository\org\openjfx\javafx-swing\14-ea+4\javafx-swing-14-ea+4.jar;C:\Users\gabrielagabor\.m2\repository\org\openjfx\javafx-swing\14-ea+4\javafx-swing-14-ea+4-win.jar;C:\Users\gabrielagabor\.m2\repository\org\openjfx\javafx-web\14-ea+4\javafx-web-14-ea+4.jar;C:\Users\gabrielagabor\.m2\repository\org\openjfx\javafx-web\14-ea+4\javafx-web-14-ea+4-win.jar;C:\Users\gabrielagabor\.m2\repository\log4j\log4j\1.2.17\log4j-1.2.17.jar;C:\Users\gabrielagabor\.m2\repository\org\controlsfx\controlsfx\11.0.1\controlsfx-11.0.1.jar;C:\Users\gabrielagabor\.m2\repository\org\mockito\mockito-core\2.23.0\mockito-core-2.23.0.jar;C:\Users\gabrielagabor\.m2\repository\net\bytebuddy\byte-buddy\1.9.0\byte-buddy-1.9.0.jar;C:\Users\gabrielagabor\.m2\repository\net\bytebuddy\byte-buddy-agent\1.9.0\byte-buddy-agent-1.9.0.jar;C:\Users\gabrielagabor\.m2\repository\org\objenesis\objenesis\2.6\objenesis-2.6.jar;C:\Users\gabrielagabor\.m2\repository\org\mockito\mockito-junit-jupiter\2.23.0\mockito-junit-jupiter-2.23.0.jar;C:\Users\gabrielagabor\.m2\repository\junit\junit\4.12\junit-4.12.jar;C:\Users\gabrielagabor\.m2\repository\org\hamcrest\hamcrest-core\1.3\hamcrest-core-1.3.jar;"/>
    <property name="java.vm.vendor" value="Amazon.com Inc."/>
    <property name="sun.arch.data.model" value="64"/>
    <property name="user.variant" value=""/>
    <property name="java.vendor.url" value="https://aws.amazon.com/corretto/"/>
    <property name="user.timezone" value="Europe/Bucharest"/>
    <property name="os.name" value="Windows 10"/>
    <property name="java.vm.specification.version" value="16"/>
    <property name="sun.java.launcher" value="SUN_STANDARD"/>
    <property name="user.country" value="US"/>
    <property name="sun.boot.library.path" value="C:\Users\gabrielagabor\.jdks\corretto-16.0.2\bin"/>
    <property name="sun.java.command" value="C:\Users\GABRIE~1\AppData\Local\Temp\surefire18105487350937715622\surefirebooter15585385310805310709.jar C:\Users\gabrielagabor\AppData\Local\Temp\surefire18105487350937715622 2022-04-18T11-39-30_433-jvmRun1 surefire6235514777445527022tmp surefire_02817615934570530377tmp"/>
    <property name="jdk.debug" value="release"/>
    <property name="surefire.test.class.path" value="C:\Users\gabrielagabor\Desktop\-\Facultate\An_3\Semestrul_2\VVSS\Laborator\vvss\01_Tasks\target\test-classes;C:\Users\gabrielagabor\Desktop\-\Facultate\An_3\Semestrul_2\VVSS\Laborator\vvss\01_Tasks\target\classes;C:\Users\gabrielagabor\.m2\repository\org\junit\jupiter\junit-jupiter-engine\5.6.0\junit-jupiter-engine-5.6.0.jar;C:\Users\gabrielagabor\.m2\repository\org\apiguardian\apiguardian-api\1.1.0\apiguardian-api-1.1.0.jar;C:\Users\gabrielagabor\.m2\repository\org\junit\platform\junit-platform-engine\1.6.0\junit-platform-engine-1.6.0.jar;C:\Users\gabrielagabor\.m2\repository\org\junit\jupiter\junit-jupiter-api\5.6.0\junit-jupiter-api-5.6.0.jar;C:\Users\gabrielagabor\.m2\repository\org\opentest4j\opentest4j\1.2.0\opentest4j-1.2.0.jar;C:\Users\gabrielagabor\.m2\repository\org\junit\platform\junit-platform-commons\1.6.0\junit-platform-commons-1.6.0.jar;C:\Users\gabrielagabor\.m2\repository\org\junit\jupiter\junit-jupiter-params\5.6.0\junit-jupiter-params-5.6.0.jar;C:\Users\gabrielagabor\.m2\repository\org\openjfx\javafx-base\14-ea+4\javafx-base-14-ea+4.jar;C:\Users\gabrielagabor\.m2\repository\org\openjfx\javafx-base\14-ea+4\javafx-base-14-ea+4-win.jar;C:\Users\gabrielagabor\.m2\repository\org\openjfx\javafx-graphics\14-ea+4\javafx-graphics-14-ea+4.jar;C:\Users\gabrielagabor\.m2\repository\org\openjfx\javafx-graphics\14-ea+4\javafx-graphics-14-ea+4-win.jar;C:\Users\gabrielagabor\.m2\repository\org\openjfx\javafx-controls\14-ea+4\javafx-controls-14-ea+4.jar;C:\Users\gabrielagabor\.m2\repository\org\openjfx\javafx-controls\14-ea+4\javafx-controls-14-ea+4-win.jar;C:\Users\gabrielagabor\.m2\repository\org\openjfx\javafx-fxml\14-ea+4\javafx-fxml-14-ea+4.jar;C:\Users\gabrielagabor\.m2\repository\org\openjfx\javafx-fxml\14-ea+4\javafx-fxml-14-ea+4-win.jar;C:\Users\gabrielagabor\.m2\repository\org\openjfx\javafx-media\14-ea+4\javafx-media-14-ea+4.jar;C:\Users\gabrielagabor\.m2\repository\org\openjfx\javafx-media\14-ea+4\javafx-media-14-ea+4-win.jar;C:\Users\gabrielagabor\.m2\repository\org\openjfx\javafx-swing\14-ea+4\javafx-swing-14-ea+4.jar;C:\Users\gabrielagabor\.m2\repository\org\openjfx\javafx-swing\14-ea+4\javafx-swing-14-ea+4-win.jar;C:\Users\gabrielagabor\.m2\repository\org\openjfx\javafx-web\14-ea+4\javafx-web-14-ea+4.jar;C:\Users\gabrielagabor\.m2\repository\org\openjfx\javafx-web\14-ea+4\javafx-web-14-ea+4-win.jar;C:\Users\gabrielagabor\.m2\repository\log4j\log4j\1.2.17\log4j-1.2.17.jar;C:\Users\gabrielagabor\.m2\repository\org\controlsfx\controlsfx\11.0.1\controlsfx-11.0.1.jar;C:\Users\gabrielagabor\.m2\repository\org\mockito\mockito-core\2.23.0\mockito-core-2.23.0.jar;C:\Users\gabrielagabor\.m2\repository\net\bytebuddy\byte-buddy\1.9.0\byte-buddy-1.9.0.jar;C:\Users\gabrielagabor\.m2\repository\net\bytebuddy\byte-buddy-agent\1.9.0\byte-buddy-agent-1.9.0.jar;C:\Users\gabrielagabor\.m2\repository\org\objenesis\objenesis\2.6\objenesis-2.6.jar;C:\Users\gabrielagabor\.m2\repository\org\mockito\mockito-junit-jupiter\2.23.0\mockito-junit-jupiter-2.23.0.jar;C:\Users\gabrielagabor\.m2\repository\junit\junit\4.12\junit-4.12.jar;C:\Users\gabrielagabor\.m2\repository\org\hamcrest\hamcrest-core\1.3\hamcrest-core-1.3.jar;"/>
    <property name="sun.cpu.endian" value="little"/>
    <property name="user.home" value="C:\Users\gabrielagabor"/>
    <property name="user.language" value="en"/>
    <property name="java.specification.vendor" value="Oracle Corporation"/>
    <property name="java.version.date" value="2021-07-20"/>
    <property name="java.home" value="C:\Users\gabrielagabor\.jdks\corretto-16.0.2"/>
    <property name="file.separator" value="\"/>
    <property name="basedir" value="C:\Users\gabrielagabor\Desktop\-\Facultate\An_3\Semestrul_2\VVSS\Laborator\vvss\01_Tasks"/>
    <property name="java.vm.compressedOopsMode" value="Zero based"/>
    <property name="line.separator" value="&#10;"/>
    <property name="java.vm.specification.vendor" value="Oracle Corporation"/>
    <property name="java.specification.name" value="Java Platform API Specification"/>
    <property name="surefire.real.class.path" value="C:\Users\GABRIE~1\AppData\Local\Temp\surefire18105487350937715622\surefirebooter15585385310805310709.jar"/>
    <property name="user.script" value=""/>
    <property name="sun.management.compiler" value="HotSpot 64-Bit Tiered Compilers"/>
    <property name="java.runtime.version" value="16.0.2+7"/>
    <property name="user.name" value="gabrielagabor"/>
    <property name="path.separator" value=";"/>
    <property name="os.version" value="10.0"/>
    <property name="java.runtime.name" value="OpenJDK Runtime Environment"/>
    <property name="file.encoding" value="Cp1252"/>
    <property name="java.vm.name" value="OpenJDK 64-Bit Server VM"/>
    <property name="java.vendor.version" value="Corretto-16.0.2.7.1"/>
    <property name="localRepository" value="C:\Users\gabrielagabor\.m2\repository"/>
    <property name="java.vendor.url.bug" value="https://github.com/corretto/corretto-jdk/issues/"/>
    <property name="java.io.tmpdir" value="C:\Users\GABRIE~1\AppData\Local\Temp\"/>
    <property name="idea.version" value="2021.2.2"/>
    <property name="java.version" value="16.0.2"/>
    <property name="user.dir" value="C:\Users\gabrielagabor\Desktop\-\Facultate\An_3\Semestrul_2\VVSS\Laborator\vvss\01_Tasks"/>
    <property name="os.arch" value="amd64"/>
    <property name="java.vm.specification.name" value="Java Virtual Machine Specification"/>
    <property name="sun.os.patch.level" value=""/>
    <property name="java.library.path" value="C:\Users\gabrielagabor\.jdks\corretto-16.0.2\bin;C:\Windows\Sun\Java\bin;C:\Windows\system32;C:\Windows;C:\Program Files\Docker\Docker\Resources\bin;C:\Program Files\Android\Android Studio\bin;C:\Program Files\Java\jdk-11.0.10\bin;C:\Program Files\Common Files\Oracle\Java\javapath;C:\Windows\system32;C:\Windows;C:\Windows\System32\Wbem;C:\Windows\System32\WindowsPowerShell\v1.0\;C:\Windows\System32\OpenSSH\;C:\Program Files\Git\cmd;C:\Program Files\dotnet\;C:\Program Files\Microsoft SQL Server\130\Tools\Binn\;C:\Program Files\Microsoft SQL Server\Client SDK\ODBC\170\Tools\Binn\;C:\Users\gabrielagabor\AppData\Local\Microsoft\WindowsApps;C:\Program Files\JetBrains\IntelliJ IDEA 2021.2.2\bin;C:\Users\gabrielagabor\.dotnet\tools;C:\Users\gabrielagabor\AppData\Local\Programs\Microsoft VS Code\bin;C:\Program Files\apache-maven-3.8.3-bin\apache-maven-3.8.3\bin;C:\CXCOMM190500P_2-70004140\hybris\bin\platform\apache-ant\bin;C:\Program Files\flutter\bin;C:\Program Files (x86)\dotnet\;C:\Program Files\nodejs\;C:\GnuWin32\bin;C:\Program Files (x86)\Microsoft SQL Server\110\DTS\Binn\;C:\Program Files (x86)\Microsoft SQL Server\120\DTS\Binn\;C:\Program Files (x86)\Microsoft SQL Server\130\DTS\Binn\;C:\Program Files (x86)\Microsoft SQL Server\140\DTS\Binn\;C:\Program Files (x86)\Microsoft SQL Server\150\DTS\Binn\;C:\Program Files (x86)\Microsoft SQL Server\150\Tools\Binn\;C:\Program Files\Microsoft SQL Server\150\Tools\Binn\;C:\Program Files\Microsoft SQL Server\150\DTS\Binn\;C:\Program Files\Azure Data Studio\bin;C:\Program Files\PuTTY\;C:\Program Files\MySQL\MySQL Shell 8.0\bin\;C:\Users\gabrielagabor\AppData\Local\Microsoft\WindowsApps;C:\Program Files\JetBrains\IntelliJ IDEA 2021.2.2\bin;;C:\Users\gabrielagabor\.dotnet\tools;C:\Users\gabrielagabor\AppData\Local\Programs\Microsoft VS Code\bin;C:\Program Files\JetBrains\PyCharm_Community_Edition_2021.2.2\bin;;C:\Users\gabrielagabor\AppData\Roaming\npm;C:\Users\gabrielagabor\AppData\Local\GitHubDesktop\bin;C:\Program Files\Azure Data Studio\bin;."/>
    <property name="java.vm.info" value="mixed mode, sharing"/>
    <property name="java.vendor" value="Amazon.com Inc."/>
    <property name="java.vm.version" value="16.0.2+7"/>
    <property name="sun.io.unicode.encoding" value="UnicodeLittle"/>
    <property name="java.class.version" value="60.0"/>
  </properties>
  <testcase name="whenMinutesAreEqualWithInferiorLimit_ShouldReturnCorrectParsing" classname="tasks.services.TasksServiceTest" time="0"/>
  <testcase name="whenHoursAreNotValid_ShouldThrowIllegalArgumentException{String}[1]" classname="tasks.services.TasksServiceTest" time="0.015"/>
  <testcase name="whenHoursAreNotValid_ShouldThrowIllegalArgumentException{String}[2]" classname="tasks.services.TasksServiceTest" time="0"/>
  <testcase name="whenMinutesAreAboveInferiorLimit_ShouldReturnCorrectParsing" classname="tasks.services.TasksServiceTest" time="0"/>
  <testcase name="whenHoursAreAboveSuperiorLimit_ShouldThrowIllegalArgumentException" classname="tasks.services.TasksServiceTest" time="0.001"/>
  <testcase name="whenHoursAreBelowSuperiorLimit_ShouldReturnCorrectParsing" classname="tasks.services.TasksServiceTest" time="0"/>
  <testcase name="whenHoursAreEqualWithSuperiorLimit_ShouldReturnCorrectParsing" classname="tasks.services.TasksServiceTest" time="0"/>
  <testcase name="whenHoursAreBelowInferiorLimit_ShouldThrowIllegalArgumentException" classname="tasks.services.TasksServiceTest" time="0.001"/>
  <testcase name="whenMinutesAreAboveSuperiorLimit_ShouldThrowIllegalArgumentException" classname="tasks.services.TasksServiceTest" time="0.001"/>
  <testcase name="whenMinutesAreLessThen0_ShouldThrowIllegalArgumentException" classname="tasks.services.TasksServiceTest" time="0"/>
  <testcase name="whenHoursAndMinutesAreOk_ShouldReturnCorrectParsing" classname="tasks.services.TasksServiceTest" time="0.001"/>
  <testcase name="whenMinutesAreEqualWithSuperiorLimit_ShouldReturnCorrectParsing" classname="tasks.services.TasksServiceTest" time="0"/>
  <testcase name="whenHoursAreAboveInferiorLimit_ShouldReturnCorrectParsing" classname="tasks.services.TasksServiceTest" time="0.001"/>
  <testcase name="whenMinutesAreBelowInferiorLimit_ShouldThrowIllegalArgumentException" classname="tasks.services.TasksServiceTest" time="0"/>
  <testcase name="whenHoursAreEqualWithInferiorLimit_ShouldReturnCorrectParsing" classname="tasks.services.TasksServiceTest" time="0.001"/>
  <testcase name="whenMinutesAreBelowSuperiorLimit_ShouldReturnCorrectParsing" classname="tasks.services.TasksServiceTest" time="0.001"/>
  <testcase name="whenMinutesAreGreaterThen59_ShouldThrowIllegalArgumentException" classname="tasks.services.TasksServiceTest" time="0.001"/>
</testsuite>